life_traits
…
##See results

as.tibble (species_lt2018) 

## Warning: `as.tibble()` is deprecated, use `as_tibble()` (but mind the new semantics).
## This warning is displayed once per session.

## # A tibble: 12,368 x 18
##    am_sid genus species kingdom phylum class order family fish_life_worked
##    <chr>  <chr> <chr>   <chr>   <chr>  <chr> <chr> <chr>  <lgl>           
##  1 Fis-2 Chei furcat Animal Chord Acti Belo Exoco TRUE            
##  2 Fis-2 Cory hippur Animal Chord Acti Perc Coryp TRUE            
##  3 Fis-2 Cory equise Animal Chord Acti Perc Coryp TRUE            
##  4 Fis-2 Angu anguil Animal Chord Acti Angu Angui TRUE            
##  5 Fis-2 Argy affinis Animal Chord Acti Stom Stern TRUE            
##  6 Fis-1 Mela berico Animal Chord Acti Osme Bathy TRUE            
##  7 Fis-2 Acan soland Animal Chord Acti Perc Scomb TRUE            
##  8 Fis-2 Alep ferox   Animal Chord Acti Aulo Alepi TRUE            
##  9 Fis-2 Gast melamp Animal Chord Acti Perc Scomb TRUE            
## 10 Fis-2 Kats pelamis Animal Chord Acti Perc Scomb TRUE            
## #  with 12,358 more rows, and 9 more variables: Loo <dbl>, K <dbl>,
## #   Winfinity <dbl>, tmax <dbl>, tm <dbl>, M <dbl>, Lm <dbl>,
## #   Temperature <dbl>, sciname <chr>
…
